module github.com/tendermint/tendermint

go 1.18

require (
	github.com/BurntSushi/toml v1.2.0
	github.com/ChainSafe/go-schnorrkel v0.0.0-20200405005733-88cbf1b4c40d
	github.com/adlio/schema v1.3.3
	github.com/btcsuite/btcd v0.22.1
	github.com/btcsuite/btcutil v1.0.3-0.20201208143702-a53e38424cce
	github.com/bufbuild/buf v1.7.0
	github.com/cosmos/gogoproto v1.4.1
	github.com/creachadair/taskgroup v0.3.2
	github.com/fortytw2/leaktest v1.3.0
	github.com/go-kit/kit v0.12.0
	github.com/go-kit/log v0.2.1
	github.com/go-logfmt/logfmt v0.5.1
	github.com/golang/protobuf v1.5.2
	github.com/golangci/golangci-lint v1.49.0
	github.com/google/orderedcode v0.0.1
	github.com/gorilla/websocket v1.5.0
	github.com/gtank/merlin v0.1.1
	github.com/informalsystems/tm-load-test v1.0.0
	github.com/lib/pq v1.10.6
	github.com/libp2p/go-buffer-pool v0.1.0
	github.com/minio/highwayhash v1.0.2
	github.com/ory/dockertest v3.3.5+incompatible
	github.com/pkg/errors v0.9.1
	github.com/pointlander/peg v1.0.1
	github.com/prometheus/client_golang v1.13.0
	github.com/prometheus/client_model v0.2.0
	github.com/prometheus/common v0.37.0
	github.com/rcrowley/go-metrics v0.0.0-20201227073835-cf1acfcdf475
	github.com/rs/cors v1.8.2
	github.com/sasha-s/go-deadlock v0.3.1
	github.com/snikch/goodman v0.0.0-20171125024755-10e37e294daa
	github.com/spf13/cobra v1.5.0
	github.com/spf13/viper v1.12.0
	github.com/stretchr/testify v1.8.0
	github.com/syndtr/goleveldb v1.0.1-0.20200815110645-5c35d600f0ca
	github.com/tendermint/tm-db v0.6.6
	github.com/vektra/mockery/v2 v2.14.0
	golang.org/x/crypto v0.0.0-20220722155217-630584e8d5aa
	golang.org/x/net v0.0.0-20220726230323-06994584191e
	gonum.org/v1/gonum v0.11.0
	google.golang.org/grpc v1.49.0
	google.golang.org/protobuf v1.28.1
)

require (
	4d63.com/gochecknoglobals v0.1.0 // indirect
	github.com/Antonboom/errname v0.1.7 // indirect
	github.com/Antonboom/nilnil v0.1.1 // indirect
	github.com/Azure/go-ansiterm v0.0.0-20210617225240-d185dfc1b5a1 // indirect
	github.com/DataDog/zstd v1.4.1 // indirect
	github.com/Djarvur/go-err113 v0.0.0-20210108212216-aea10b59be24 // indirect
	github.com/GaijinEntertainment/go-exhaustruct/v2 v2.3.0 // indirect
	github.com/Masterminds/semver v1.5.0 // indirect
	github.com/Microsoft/go-winio v0.5.2 // indirect
	github.com/Nvveen/Gotty v0.0.0-20120604004816-cd527374f1e5 // indirect
	github.com/OpenPeeDeeP/depguard v1.1.0 // indirect
	github.com/alexkohler/prealloc v1.0.0 // indirect
	github.com/alingse/asasalint v0.0.11 // indirect
	github.com/ashanbrown/forbidigo v1.3.0 // indirect
	github.com/ashanbrown/makezero v1.1.1 // indirect
	github.com/beorn7/perks v1.0.1 // indirect
	github.com/bkielbasa/cyclop v1.2.0 // indirect
	github.com/blizzy78/varnamelen v0.8.0 // indirect
	github.com/bombsimon/wsl/v3 v3.3.0 // indirect
	github.com/breml/bidichk v0.2.3 // indirect
	github.com/breml/errchkjson v0.3.0 // indirect
	github.com/bufbuild/connect-go v0.2.0 // indirect
	github.com/butuzov/ireturn v0.1.1 // indirect
	github.com/cenkalti/backoff v2.2.1+incompatible // indirect
	github.com/cespare/xxhash v1.1.0 // indirect
	github.com/cespare/xxhash/v2 v2.1.2 // indirect
	github.com/charithe/durationcheck v0.0.9 // indirect
	github.com/chavacava/garif v0.0.0-20220630083739-93517212f375 // indirect
	github.com/containerd/containerd v1.6.6 // indirect
	github.com/containerd/continuity v0.3.0 // indirect
	github.com/containerd/typeurl v1.0.2 // indirect
	github.com/cosmos/go-bip39 v0.0.0-20180819234021-555e2067c45d // indirect
	github.com/cpuguy83/go-md2man/v2 v2.0.2 // indirect
	github.com/curioswitch/go-reassign v0.1.2 // indirect
	github.com/daixiang0/gci v0.6.3 // indirect
	github.com/davecgh/go-spew v1.1.1 // indirect
	github.com/denis-tingaikin/go-header v0.4.3 // indirect
	github.com/dgraph-io/badger/v2 v2.2007.2 // indirect
	github.com/dgraph-io/ristretto v0.0.3-0.20200630154024-f66de99634de // indirect
	github.com/dgryski/go-farm v0.0.0-20190423205320-6a90982ecee2 // indirect
	github.com/docker/distribution v2.8.1+incompatible // indirect
	github.com/docker/docker v20.10.17+incompatible // indirect
	github.com/docker/go-connections v0.4.0 // indirect
	github.com/docker/go-units v0.4.0 // indirect
	github.com/dustin/go-humanize v1.0.0 // indirect
	github.com/esimonov/ifshort v1.0.4 // indirect
	github.com/ettle/strcase v0.1.1 // indirect
	github.com/fatih/color v1.13.0 // indirect
	github.com/fatih/structtag v1.2.0 // indirect
	github.com/firefart/nonamedreturns v1.0.4 // indirect
	github.com/fsnotify/fsnotify v1.5.4 // indirect
	github.com/fzipp/gocyclo v0.6.0 // indirect
	github.com/go-chi/chi/v5 v5.0.7 // indirect
	github.com/go-critic/go-critic v0.6.4 // indirect
	github.com/go-logr/logr v1.2.3 // indirect
	github.com/go-logr/stdr v1.2.2 // indirect
	github.com/go-toolsmith/astcast v1.0.0 // indirect
	github.com/go-toolsmith/astcopy v1.0.1 // indirect
	github.com/go-toolsmith/astequal v1.0.2 // indirect
	github.com/go-toolsmith/astfmt v1.0.0 // indirect
	github.com/go-toolsmith/astp v1.0.0 // indirect
	github.com/go-toolsmith/strparse v1.0.0 // indirect
	github.com/go-toolsmith/typep v1.0.2 // indirect
	github.com/go-xmlfmt/xmlfmt v0.0.0-20191208150333-d5b6f63a941b // indirect
	github.com/gobwas/glob v0.2.3 // indirect
	github.com/gofrs/flock v0.8.1 // indirect
	github.com/gofrs/uuid v4.2.0+incompatible // indirect
	github.com/gogo/protobuf v1.3.2 // indirect
	github.com/golang/groupcache v0.0.0-20210331224755-41bb18bfe9da // indirect
	github.com/golang/snappy v0.0.3 // indirect
	github.com/golangci/check v0.0.0-20180506172741-cfe4005ccda2 // indirect
	github.com/golangci/dupl v0.0.0-20180902072040-3e9179ac440a // indirect
	github.com/golangci/go-misc v0.0.0-20220329215616-d24fe342adfe // indirect
	github.com/golangci/gofmt v0.0.0-20190930125516-244bba706f1a // indirect
	github.com/golangci/lint-1 v0.0.0-20191013205115-297bf364a8e0 // indirect
	github.com/golangci/maligned v0.0.0-20180506175553-b1d89398deca // indirect
	github.com/golangci/misspell v0.3.5 // indirect
	github.com/golangci/revgrep v0.0.0-20220804021717-745bb2f7c2e6 // indirect
	github.com/golangci/unconvert v0.0.0-20180507085042-28b1c447d1f4 // indirect
	github.com/google/btree v1.0.0 // indirect
	github.com/google/go-cmp v0.5.8 // indirect
	github.com/gordonklaus/ineffassign v0.0.0-20210914165742-4cc7213b9bc8 // indirect
	github.com/gostaticanalysis/analysisutil v0.7.1 // indirect
	github.com/gostaticanalysis/comment v1.4.2 // indirect
	github.com/gostaticanalysis/forcetypeassert v0.1.0 // indirect
	github.com/gostaticanalysis/nilerr v0.1.1 // indirect
	github.com/grpc-ecosystem/go-grpc-middleware v1.3.0 // indirect
	github.com/gtank/ristretto255 v0.1.2 // indirect
	github.com/hashicorp/errwrap v1.1.0 // indirect
	github.com/hashicorp/go-multierror v1.1.1 // indirect
	github.com/hashicorp/go-version v1.6.0 // indirect
	github.com/hashicorp/hcl v1.0.0 // indirect
	github.com/hexops/gotextdiff v1.0.3 // indirect
	github.com/inconshreveable/mousetrap v1.0.0 // indirect
	github.com/jdxcode/netrc v0.0.0-20210204082910-926c7f70242a // indirect
	github.com/jgautheron/goconst v1.5.1 // indirect
	github.com/jhump/protocompile v0.0.0-20220216033700-d705409f108f // indirect
	github.com/jhump/protoreflect v1.12.1-0.20220721211354-060cc04fc18b // indirect
	github.com/jingyugao/rowserrcheck v1.1.1 // indirect
	github.com/jirfag/go-printf-func-name v0.0.0-20200119135958-7558a9eaa5af // indirect
	github.com/jmhodges/levigo v1.0.0 // indirect
	github.com/julz/importas v0.1.0 // indirect
	github.com/kisielk/errcheck v1.6.2 // indirect
	github.com/kisielk/gotool v1.0.0 // indirect
	github.com/klauspost/compress v1.15.9 // indirect
	github.com/klauspost/pgzip v1.2.5 // indirect
	github.com/kulti/thelper v0.6.3 // indirect
	github.com/kunwardeep/paralleltest v1.0.6 // indirect
	github.com/kyoh86/exportloopref v0.1.8 // indirect
	github.com/ldez/gomoddirectives v0.2.3 // indirect
	github.com/ldez/tagliatelle v0.3.1 // indirect
	github.com/leonklingele/grouper v1.1.0 // indirect
	github.com/lufeee/execinquery v1.2.1 // indirect
	github.com/magiconair/properties v1.8.6 // indirect
	github.com/maratori/testpackage v1.1.0 // indirect
	github.com/matoous/godox v0.0.0-20210227103229-6504466cf951 // indirect
	github.com/mattn/go-colorable v0.1.13 // indirect
	github.com/mattn/go-isatty v0.0.16 // indirect
	github.com/mattn/go-runewidth v0.0.9 // indirect
	github.com/matttproud/golang_protobuf_extensions v1.0.2-0.20181231171920-c182affec369 // indirect
	github.com/mbilski/exhaustivestruct v1.2.0 // indirect
	github.com/mgechev/revive v1.2.3 // indirect
	github.com/mimoo/StrobeGo v0.0.0-20210601165009-122bf33a46e0 // indirect
	github.com/mitchellh/go-homedir v1.1.0 // indirect
	github.com/mitchellh/mapstructure v1.5.0 // indirect
	github.com/moby/buildkit v0.10.3 // indirect
	github.com/moby/term v0.0.0-20210619224110-3f7ff695adc6 // indirect
	github.com/moricho/tparallel v0.2.1 // indirect
	github.com/morikuni/aec v1.0.0 // indirect
	github.com/nakabonne/nestif v0.3.1 // indirect
	github.com/nbutton23/zxcvbn-go v0.0.0-20210217022336-fa2cb2858354 // indirect
	github.com/nishanths/exhaustive v0.8.1 // indirect
	github.com/nishanths/predeclared v0.2.2 // indirect
	github.com/olekukonko/tablewriter v0.0.5 // indirect
	github.com/opencontainers/go-digest v1.0.0 // indirect
	github.com/opencontainers/image-spec v1.0.3-0.20211202183452-c5a74bcca799 // indirect
	github.com/opencontainers/runc v1.1.3 // indirect
	github.com/pelletier/go-toml v1.9.5 // indirect
	github.com/pelletier/go-toml/v2 v2.0.2 // indirect
	github.com/petermattis/goid v0.0.0-20180202154549-b0b1615b78e5 // indirect
	github.com/phayes/checkstyle v0.0.0-20170904204023-bfd46e6a821d // indirect
	github.com/pkg/browser v0.0.0-20210911075715-681adbf594b8 // indirect
	github.com/pkg/profile v1.6.0 // indirect
	github.com/pmezard/go-difflib v1.0.0 // indirect
	github.com/pointlander/compress v1.1.1-0.20190518213731-ff44bd196cc3 // indirect
	github.com/pointlander/jetset v1.0.1-0.20190518214125-eee7eff80bd4 // indirect
	github.com/polyfloyd/go-errorlint v1.0.2 // indirect
	github.com/prometheus/procfs v0.8.0 // indirect
	github.com/quasilyte/go-ruleguard v0.3.17 // indirect
	github.com/quasilyte/gogrep v0.0.0-20220120141003-628d8b3623b5 // indirect
	github.com/quasilyte/regex/syntax v0.0.0-20200407221936-30656e2c4a95 // indirect
	github.com/quasilyte/stdinfo v0.0.0-20220114132959-f7386bf02567 // indirect
	github.com/rs/zerolog v1.27.0 // indirect
	github.com/russross/blackfriday/v2 v2.1.0 // indirect
	github.com/ryancurrah/gomodguard v1.2.4 // indirect
	github.com/ryanrolds/sqlclosecheck v0.3.0 // indirect
	github.com/sanposhiho/wastedassign/v2 v2.0.6 // indirect
	github.com/sashamelentyev/interfacebloat v1.1.0 // indirect
	github.com/sashamelentyev/usestdlibvars v1.13.0 // indirect
	github.com/satori/go.uuid v1.2.0 // indirect
	github.com/securego/gosec/v2 v2.13.1 // indirect
	github.com/shazow/go-diff v0.0.0-20160112020656-b6b7b6733b8c // indirect
	github.com/sirupsen/logrus v1.9.0 // indirect
	github.com/sivchari/containedctx v1.0.2 // indirect
	github.com/sivchari/nosnakecase v1.7.0 // indirect
	github.com/sivchari/tenv v1.7.0 // indirect
	github.com/sonatard/noctx v0.0.1 // indirect
	github.com/sourcegraph/go-diff v0.6.1 // indirect
	github.com/spf13/afero v1.8.2 // indirect
	github.com/spf13/cast v1.5.0 // indirect
	github.com/spf13/jwalterweatherman v1.1.0 // indirect
	github.com/spf13/pflag v1.0.5 // indirect
	github.com/ssgreg/nlreturn/v2 v2.2.1 // indirect
	github.com/stbenjam/no-sprintf-host-port v0.1.1 // indirect
	github.com/stretchr/objx v0.4.0 // indirect
	github.com/subosito/gotenv v1.4.0 // indirect
	github.com/sylvia7788/contextcheck v1.0.6 // indirect
	github.com/tdakkota/asciicheck v0.1.1 // indirect
	github.com/tecbot/gorocksdb v0.0.0-20191217155057-f0fad39f321c // indirect
	github.com/tetafro/godot v1.4.11 // indirect
	github.com/timakin/bodyclose v0.0.0-20210704033933-f49887972144 // indirect
	github.com/timonwong/logrlint v0.1.0 // indirect
	github.com/tomarrell/wrapcheck/v2 v2.6.2 // indirect
	github.com/tommy-muehle/go-mnd/v2 v2.5.0 // indirect
	github.com/ultraware/funlen v0.0.3 // indirect
	github.com/ultraware/whitespace v0.0.5 // indirect
	github.com/uudashr/gocognit v1.0.6 // indirect
	github.com/yagipy/maintidx v1.0.0 // indirect
	github.com/yeya24/promlinter v0.2.0 // indirect
	gitlab.com/bosi/decorder v0.2.3 // indirect
	go.etcd.io/bbolt v1.3.6 // indirect
	go.opencensus.io v0.23.0 // indirect
	go.opentelemetry.io/contrib/instrumentation/google.golang.org/grpc/otelgrpc v0.33.0 // indirect
	go.opentelemetry.io/otel v1.8.0 // indirect
	go.opentelemetry.io/otel/trace v1.8.0 // indirect
	go.uber.org/atomic v1.9.0 // indirect
	go.uber.org/multierr v1.8.0 // indirect
	go.uber.org/zap v1.21.0 // indirect
	golang.org/x/exp v0.0.0-20220722155223-a9213eeb770e // indirect
	golang.org/x/exp/typeparams v0.0.0-20220613132600-b0d781184e0d // indirect
	golang.org/x/mod v0.6.0-dev.0.20220419223038-86c51ed26bb4 // indirect
	golang.org/x/sync v0.0.0-20220722155255-886fb9371eb4 // indirect
	golang.org/x/sys v0.0.0-20220811171246-fbc7d0a398ab // indirect
	golang.org/x/term v0.0.0-20220722155259-a9ba230a4035 // indirect
	golang.org/x/text v0.3.7 // indirect
	golang.org/x/tools v0.1.12 // indirect
	google.golang.org/genproto v0.0.0-20220725144611-272f38e5d71b // indirect
	gopkg.in/ini.v1 v1.66.6 // indirect
	gopkg.in/yaml.v2 v2.4.0 // indirect
	gopkg.in/yaml.v3 v3.0.1 // indirect
	honnef.co/go/tools v0.3.3 // indirect
	mvdan.cc/gofumpt v0.3.1 // indirect
	mvdan.cc/interfacer v0.0.0-20180901003855-c20040233aed // indirect
	mvdan.cc/lint v0.0.0-20170908181259-adc824a0674b // indirect
	mvdan.cc/unparam v0.0.0-20220706161116-678bad134442 // indirect
)

retract [v0.35.0, v0.35.9] // See https://github.com/tendermint/tendermint/discussions/9155
